\relax 
\catcode `"\active 
\catcode `-\active 
\select@language{czech}
\@writefile{toc}{\select@language{czech}}
\@writefile{lof}{\select@language{czech}}
\@writefile{lot}{\select@language{czech}}
\@writefile{toc}{\contentsline {section}{\numberline {1}Matematick\'y text}{1}}
\newlabel{def:rovnice}{{1.1}{1}}
\newlabel{alg}{{1}{1}}
\@writefile{toc}{\contentsline {subsection}{\numberline {1.1}Podsekce obsahuj\IeC {\'\i }c\IeC {\'\i } v\v etu}{1}}
\newlabel{vetta}{{1}{1}}
\@writefile{toc}{\contentsline {section}{\numberline {2}Rovnice a odkazy}{1}}
\newlabel{rce}{{1}{1}}
\@writefile{toc}{\contentsline {section}{\numberline {3}Matice}{1}}
\@writefile{toc}{\contentsline {section}{\numberline {4}Z\'av\v erem}{2}}
