\relax 
\catcode `"\active 
\catcode `-\active 
\select@language{czech}
\@writefile{toc}{\select@language{czech}}
\@writefile{lof}{\select@language{czech}}
\@writefile{lot}{\select@language{czech}}
\@writefile{toc}{\contentsline {section}{\numberline {1}C\IeC {\'\i }l (target):}{1}}
\@writefile{toc}{\contentsline {section}{\numberline {2}Technologie (framework):}{1}}
\@writefile{toc}{\contentsline {section}{\numberline {3}Metoda (coverage criterion):}{1}}
\@writefile{toc}{\contentsline {section}{\numberline {4}Testovac\IeC {\'\i } sada (test suite):}{1}}
\@writefile{toc}{\contentsline {section}{\numberline {5}Dosa\v zen\'e v\'ysledky (coverage analysis):}{1}}
\@writefile{toc}{\contentsline {section}{\numberline {6}Nalezen\'e chyby/neo\v cek\'avan\'e chov\'an\IeC {\'\i } (bugreport): }{1}}
